lazart.tests namespace
======================

.. py:module:: lazart.tests

Submodules
----------

.. toctree::
   :maxdepth: 20

   lazart.tests.regression
   lazart.tests.test
   lazart.tests.test_factory
