lazart.analysis.attack\_redundancy module
=========================================

.. automodule:: lazart.analysis.attack_redundancy
   :members:
   :undoc-members:
   :show-inheritance:
   :private-members:
