lazart.\_internal\_ namespace
=============================

.. py:module:: lazart._internal_

Submodules
----------

.. toctree::
   :maxdepth: 20

   lazart._internal_.args
   lazart._internal_.color
   lazart._internal_.enum
   lazart._internal_.extensions
   lazart._internal_.folder
   lazart._internal_.util
